L,Q0,Qex,beta
-60,1.31781e+009,5.9162664e+009,0.22274353
-45,1.3173831e+009,2.7995281e+008,4.7057326
-30,1.3171601e+009,13482895,97.691192
-15,1.3176597e+009,660639.32,1994.522
0,1.3175528e+009,35919.732,36680.475
15,1.317533e+009,3170.906,415506.8
30,1.3215981e+009,541.44834,2440857.3

